v 20110115 2
C 40000 40000 0 0 0 title-B.sym
C 51000 47800 1 0 0 25Cxx-1.sym
{
T 51300 49150 5 10 0 0 0 0 1
device=25Cxx
T 52000 48800 5 10 1 1 0 0 1
refdes=U2
T 51300 49350 5 10 0 0 0 0 1
footprint=DIL 8 300
T 51000 47800 5 10 0 0 0 0 1
net=SO100:2
T 51000 47800 5 10 0 0 0 0 1
net=WP100:3
T 51000 47800 5 10 0 0 0 0 1
net=SI100:5
T 51000 47800 5 10 0 0 0 0 1
net=SCL100:6
T 51000 47800 5 10 0 0 0 0 1
net=Hold100:7
T 51000 47800 5 10 0 0 0 0 1
net=Vcc100:8
T 51000 47800 5 10 0 0 0 0 1
net=GND100:4
}
C 50900 43900 1 0 0 25Cxx-1.sym
{
T 51200 45250 5 10 0 0 0 0 1
device=25Cxx
T 51900 44900 5 10 1 1 0 0 1
refdes=U1
T 51200 45450 5 10 0 0 0 0 1
footprint=SO8M
T 50900 43900 5 10 0 0 0 0 1
net=SO100:2
T 50900 43900 5 10 0 0 0 0 1
net=WP100:3
T 50900 43900 5 10 0 0 0 0 1
net=SI100:5
T 50900 43900 5 10 0 0 0 0 1
net=SCL100:6
T 50900 43900 5 10 0 0 0 0 1
net=Hold100:7
T 50900 43900 5 10 0 0 0 0 1
net=Vcc100:8
T 50900 43900 5 10 0 0 0 0 1
net=GND100:4
}
N 42500 48500 45700 48500 4
N 42500 46400 42800 46400 4
C 40800 47400 1 0 0 connector4-1.sym
{
T 42600 48300 5 10 0 0 0 0 1
device=CONNECTOR_4
T 40600 48500 5 10 1 1 0 0 1
refdes=1
T 40800 47400 5 10 0 0 0 0 1
footprint=CONNECTOR 4 1
T 40800 47400 5 10 0 0 0 0 1
net=GND100:4
T 40800 47400 5 10 0 0 0 0 1
net=SO100:2
T 40800 47400 5 10 0 0 0 0 1
net=WP100:3
T 40800 47400 5 10 0 0 0 0 1
net=CS100:1
}
C 40800 45300 1 0 0 connector4-1.sym
{
T 42600 46200 5 10 0 0 0 0 1
device=CONNECTOR_4
T 40600 45300 5 10 1 1 0 0 1
refdes=8
T 40800 45300 5 10 0 0 180 6 1
footprint=CONNECTOR 4 1
T 40800 45300 5 10 0 0 180 6 1
net=Vcc100:1
T 40800 45300 5 10 0 0 180 6 1
net=Hold100:2
T 40800 45300 5 10 0 0 180 6 1
net=SCL100:3
T 40800 45300 5 10 0 0 180 6 1
net=SI100:4
}
C 44800 46900 1 180 1 switch-spdt-1.sym
{
T 45200 46100 5 10 0 0 180 6 1
device=SPDT
T 45100 47100 5 10 1 1 180 6 1
refdes=JP1
T 44800 46900 5 10 0 0 0 6 1
footprint=JUMPER3
T 44800 46900 5 10 0 0 0 6 1
net=GND100:2
T 44800 46900 5 10 0 0 0 6 1
net=CS101:1
T 44800 46900 5 10 0 0 0 6 1
net=CS103:3
}
N 51000 48300 50800 48300 4
C 42800 45400 1 0 0 output-1.sym
{
T 42900 45700 5 10 0 0 0 0 1
device=OUTPUT
T 43700 45400 5 10 1 1 0 0 1
Label=SI
}
C 50800 48400 1 180 0 output-1.sym
{
T 50700 48100 5 10 0 1 180 0 1
device=OUTPUT
T 49700 48200 5 10 1 1 0 0 1
label=SO
}
C 50700 44500 1 180 0 output-1.sym
{
T 50600 44200 5 10 0 1 180 0 1
device=OUTPUT
T 49600 44300 5 10 1 1 0 0 1
label=SO
}
N 50900 44400 50700 44400 4
C 42800 47700 1 180 1 output-1.sym
{
T 42900 47400 5 10 0 0 180 6 1
device=OUTPUT
T 44100 47500 5 10 1 1 0 6 1
label=GND
}
C 49100 48000 1 0 0 input-1.sym
{
T 49100 48300 5 10 0 0 0 0 1
device=INPUT
T 48700 48000 5 10 1 1 0 0 1
label=WP
}
N 51000 48100 49900 48100 4
C 49000 44100 1 0 0 input-1.sym
{
T 49000 44400 5 10 0 0 0 0 1
device=INPUT
T 48600 44100 5 10 1 1 0 0 1
label=WP
}
N 50900 44200 49800 44200 4
C 53300 48400 1 180 0 input-1.sym
{
T 53300 48100 5 10 0 0 180 0 1
device=INPUT
T 53400 48200 5 10 1 1 0 0 1
label=Hold
}
N 52300 48300 52500 48300 4
C 53200 44500 1 180 0 input-1.sym
{
T 53200 44200 5 10 0 0 180 0 1
device=INPUT
T 53300 44300 5 10 1 1 0 0 1
label=Hold
}
N 52200 44400 52400 44400 4
C 43600 48100 1 0 1 input-1.sym
{
T 43600 48400 5 10 0 0 0 6 1
device=INPUT
T 44000 48100 5 10 1 1 0 6 1
label=SO
}
C 54400 48200 1 180 0 input-1.sym
{
T 54400 47900 5 10 0 0 180 0 1
device=INPUT
T 54500 48000 5 10 1 1 0 0 1
Label=SCL
}
N 52300 48100 53600 48100 4
C 54300 44300 1 180 0 input-1.sym
{
T 54300 44000 5 10 0 0 180 0 1
device=INPUT
T 54400 44100 5 10 1 1 0 0 1
Label=SCL
}
N 52200 44200 53500 44200 4
C 53300 48000 1 180 0 input-1.sym
{
T 53300 47700 5 10 0 1 180 0 1
device=INPUT
T 53400 47800 5 10 1 1 0 0 1
Label=SI
}
C 53200 44100 1 180 0 input-1.sym
{
T 53200 43800 5 10 0 1 180 0 1
device=INPUT
T 53300 43900 5 10 1 1 0 0 1
Label=SI
}
N 52200 44000 52400 44000 4
N 42500 47600 42800 47600 4
C 42800 47300 1 0 1 gnd-1.sym
{
T 42800 47300 5 10 0 0 0 6 1
net=GND100:1
}
C 42500 46400 1 0 0 generic-power.sym
{
T 42700 46650 5 10 1 1 0 3 1
net=Vcc100:1
}
C 42800 48000 1 180 1 output-1.sym
{
T 42900 47700 5 10 0 0 180 6 1
device=OUTPUT
T 44000 47800 5 10 1 1 0 6 1
Label=WP
}
N 42500 47900 42800 47900 4
N 42500 48200 42800 48200 4
N 52300 47900 52500 47900 4
C 42800 45700 1 0 0 output-1.sym
{
T 42900 46000 5 10 0 0 0 0 1
device=OUTPUT
T 43700 45700 5 10 1 1 0 0 1
Label=SCL
}
C 42800 46000 1 0 0 output-1.sym
{
T 42900 46300 5 10 0 0 0 0 1
device=OUTPUT
T 43700 46000 5 10 1 1 0 0 1
Label=Hold
}
N 42800 46100 42500 46100 4
N 42800 45800 42500 45800 4
N 42800 45500 42500 45500 4
C 48400 46500 1 0 0 rpack-1.sym
{
T 48700 47600 5 6 0 1 0 0 1
device=RPAK_CTS
T 48700 47100 5 6 1 1 0 0 1
refdes=RN1
T 48400 46500 5 10 0 0 0 0 1
pins=8
T 48400 46500 5 10 0 0 0 0 1
footprint=CTS_742X_08
T 48800 46300 5 10 1 1 0 0 1
value=10k
}
C 45700 47800 1 0 0 SN74CB3T3306.sym
{
T 45800 49050 5 10 0 0 0 0 1
device=74CB3T3306
T 47100 48800 5 10 1 1 0 0 1
refdes=U3
T 45800 49450 5 10 0 0 0 0 1
footprint=US8
T 45700 47800 5 10 0 0 0 0 1
slot=1
T 45700 47800 5 10 0 0 0 0 1
net=Vcc100:8
T 45700 47800 5 10 0 0 0 0 1
net=GND100:4
}
C 45700 45300 1 180 1 SN74CB3T3306.sym
{
T 45800 44050 5 10 0 0 180 6 1
device=74CB3T3306
T 47100 44300 5 10 1 1 180 6 1
refdes=U3
T 45800 43650 5 10 0 0 180 6 1
footprint=US8
T 45700 45300 5 10 0 0 180 6 1
slot=2
T 45700 45300 5 10 0 0 0 0 1
net=Vcc100:8
T 45700 45300 5 10 0 0 0 0 1
net=GND100:4
}
N 44400 44600 44400 48500 4
N 44400 44600 45700 44600 4
C 44700 46400 1 0 0 gnd-1.sym
{
T 44700 46400 5 10 0 0 0 0 1
net=GND100:1
}
N 45700 48000 45700 46800 4
N 45700 45100 45700 46700 4
N 48400 46800 45700 46800 4
N 48400 46700 45700 46700 4
N 48400 44600 48400 46600 4
N 47500 44600 50900 44600 4
N 48400 46900 48400 48500 4
N 47500 48500 51000 48500 4
N 49400 46600 49400 47000 4
C 49200 47000 1 0 0 generic-power.sym
{
T 49400 47750 5 10 1 1 0 3 1
net=Vcc100:1
}
C 43600 46300 1 0 1 input-1.sym
{
T 43600 46600 5 10 0 0 0 6 1
device=INPUT
T 44000 46300 5 10 1 1 0 6 1
label=Vcc
}
C 47000 47700 1 180 0 resistor-2.sym
{
T 46600 47350 5 10 0 0 180 0 1
device=RESISTOR
T 46800 47400 5 10 1 1 180 0 1
refdes=S2
T 47000 47700 5 10 0 0 0 0 1
footprint=0201
}
C 46100 45400 1 0 0 resistor-2.sym
{
T 46500 45750 5 10 0 0 0 0 1
device=RESISTOR
T 46300 45700 5 10 1 1 0 0 1
refdes=S1
T 46100 45400 5 10 0 0 0 0 1
footprint=0201
}
N 46100 47600 45700 47600 4
N 47000 47600 47700 47600 4
N 47700 47600 47700 48500 4
N 45700 45500 46100 45500 4
N 47000 45500 47700 45500 4
N 47700 45500 47700 44600 4
