v 20031231 1
T 400 800 8 10 0 0 0 0 1
device=SPDT
P 300 200 0 200 1 0 1
{
T 150 250 5 10 1 1 0 0 1
pinnumber=2
T 150 250 5 10 0 0 0 0 1
pinseq=2
T 150 250 5 10 0 1 0 0 1 
pinlabel=2
T 150 250 5 10 0 1 0 0 1 
pintype=pas
}
T 400 600 8 10 1 1 0 0 1
refdes=S?
P 600 400 900 400 1 0 1
{
T 750 450 5 10 1 1 0 0 1
pinnumber=1
T 750 450 5 10 0 0 0 0 1
pinseq=1
T 750 450 5 10 0 1 0 0 1 
pinlabel=1
T 750 450 5 10 0 1 0 0 1 
pintype=pas
}
P 600 0 900 0 1 0 1
{
T 750 50 5 10 1 1 0 0 1
pinnumber=3
T 750 50 5 10 0 0 0 0 1
pinseq=3
T 750 50 5 10 0 1 0 0 1 
pinlabel=3
T 750 50 5 10 0 1 0 0 1 
pintype=pas
}
L 300 200 600 200 3 0 0 0 -1 -1
